%YAML 1.1
%TAG !u! tag:unity3d.com,2011:
--- !u!1001 &100100000
Prefab:
  m_ObjectHideFlags: 1
  serializedVersion: 2
  m_Modification:
    m_TransformParent: {fileID: 0}
    m_Modifications: []
    m_RemovedComponents: []
  m_ParentPrefab: {fileID: 0}
  m_RootGameObject: {fileID: 1008049759496308}
  m_IsPrefabParent: 1
--- !u!1 &1008049759496308
GameObject:
  m_ObjectHideFlags: 0
  m_PrefabParentObject: {fileID: 0}
  m_PrefabInternal: {fileID: 100100000}
  serializedVersion: 5
  m_Component:
  - component: {fileID: 4668337058511340}
  - component: {fileID: 26985955617291754}
  - component: {fileID: 12946378267340108}
  - component: {fileID: 15890823405985974}
  m_Layer: 0
  m_Name: WaterFall
  m_TagString: Untagged
  m_Icon: {fileID: 0}
  m_NavMeshLayer: 0
  m_StaticEditorFlags: 0
  m_IsActive: 1
--- !u!4 &4668337058511340
Transform:
  m_ObjectHideFlags: 1
  m_PrefabParentObject: {fileID: 0}
  m_PrefabInternal: {fileID: 100100000}
  m_GameObject: {fileID: 1008049759496308}
  m_LocalRotation: {x: 0, y: -0.6002479, z: -0.00000007155512, w: 0.799814}
  m_LocalPosition: {x: 7.1, y: 4.2, z: -1.6}
  m_LocalScale: {x: 0.55025506, y: 0.55025524, z: 0.55025524}
  m_Children: []
  m_Father: {fileID: 0}
  m_RootOrder: 0
  m_LocalEulerAnglesHint: {x: 0, y: 0, z: 0}
--- !u!12 &12946378267340108
ParticleAnimator:
  m_ObjectHideFlags: 1
  m_PrefabParentObject: {fileID: 0}
  m_PrefabInternal: {fileID: 100100000}
  m_GameObject: {fileID: 1008049759496308}
  Does Animate Color?: 1
  colorAnimation[0]:
    serializedVersion: 2
    rgba: 16052656
  colorAnimation[1]:
    serializedVersion: 2
    rgba: 3539992575
  colorAnimation[2]:
    serializedVersion: 2
    rgba: 2362298492
  colorAnimation[3]:
    serializedVersion: 2
    rgba: 1191182335
  colorAnimation[4]:
    serializedVersion: 2
    rgba: 16776092
  worldRotationAxis: {x: 0, y: 0, z: 0}
  localRotationAxis: {x: 0, y: 0, z: 0}
  sizeGrow: 0.25
  rndForce: {x: 0, y: 0.7, z: 0}
  force: {x: 0, y: -9.9, z: 0}
  damping: 0.1
  stopSimulation: 0
  autodestruct: 0
--- !u!15 &15890823405985974
EllipsoidParticleEmitter:
  m_ObjectHideFlags: 1
  m_PrefabParentObject: {fileID: 0}
  m_PrefabInternal: {fileID: 100100000}
  m_GameObject: {fileID: 1008049759496308}
  serializedVersion: 2
  m_Enabled: 1
  m_Emit: 1
  minSize: 1.5
  maxSize: 2
  minEnergy: 2
  maxEnergy: 2
  minEmission: 300
  maxEmission: 200
  worldVelocity: {x: 0, y: 0, z: 0}
  localVelocity: {x: 0, y: 0, z: 5}
  rndVelocity: {x: 0, y: 0, z: 0}
  emitterVelocityScale: 0.05
  tangentVelocity: {x: 0, y: 0.3, z: 0}
  angularVelocity: 0
  rndAngularVelocity: 0.43
  rndRotation: 1
  Simulate in Worldspace?: 0
  m_OneShot: 0
  m_Ellipsoid: {x: 4, y: 2, z: 0}
  m_MinEmitterRange: 0
--- !u!26 &26985955617291754
ParticleRenderer:
  m_ObjectHideFlags: 1
  m_PrefabParentObject: {fileID: 0}
  m_PrefabInternal: {fileID: 100100000}
  m_GameObject: {fileID: 1008049759496308}
  m_Enabled: 1
  m_CastShadows: 1
  m_ReceiveShadows: 1
  m_DynamicOccludee: 1
  m_MotionVectors: 1
  m_LightProbeUsage: 1
  m_ReflectionProbeUsage: 1
  m_Materials:
  - {fileID: 2100000, guid: d6cd5e2ff08d3a94a874d9097bc0b971, type: 2}
  m_StaticBatchInfo:
    firstSubMesh: 0
    subMeshCount: 0
  m_StaticBatchRoot: {fileID: 0}
  m_ProbeAnchor: {fileID: 0}
  m_LightProbeVolumeOverride: {fileID: 0}
  m_ScaleInLightmap: 1
  m_PreserveUVs: 0
  m_IgnoreNormalsForChartDetection: 0
  m_ImportantGI: 0
  m_StitchLightmapSeams: 0
  m_SelectedEditorRenderState: 3
  m_MinimumChartSize: 4
  m_AutoUVMaxDistance: 0.5
  m_AutoUVMaxAngle: 89
  m_LightmapParameters: {fileID: 0}
  m_SortingLayerID: 0
  m_SortingLayer: 0
  m_SortingOrder: 0
  serializedVersion: 2
  m_CameraVelocityScale: 0
  m_StretchParticles: 0
  m_LengthScale: 2
  m_VelocityScale: 0
  m_MaxParticleSize: 1
  UV Animation:
    x Tile: 1
    y Tile: 1
    cycles: 1
